Day,Date,Time hrs,Miles,Vertical ft./day,Max vertical ft. /hr,Day to 50,daysq,miles/hour,Location (night),Day Effect,Neg Day 50,posday5010,Timeseconds
1,6/1/96,6.9,12.4,4210,3100,1,1,1.797101449,Daicey Pond,0.19984,-50,5,24840
2,6/2/96,11.4,15.7,1860,1300,2,4,1.377192982,Rainbow Lake,0.39736,-49,4.9,41040
3,6/3/96,10.94,15.3,1570,1400,3,9,1.398537477,Wadleigh lt,0.59256,-48,4.8,39384
4,6/4/96,6.21,13.6,980,1200,4,16,2.190016103,Antlers,0.78544,-47,4.7,22356
5,6/5/96,11.3,15.7,1870,1800,5,25,1.389380531,E. Brch. Pleasant River,0.976,-46,4.6,40680
6,6/6/96,10.6,16.3,3490,2100,6,36,1.537735849,Gulf Haggas,1.16424,-45,4.5,38160
7,6/7/96,11.5,15.6,4350,2300,7,49,1.356521739,Long Pond Stream,1.35016,-44,4.4,41400
8,6/8/96,10.2,18.4,3030,4000,8,64,1.803921569,Monson ME,1.53376,-43,4.3,36720
9,6/11/96,8.5,14.6,1620,2100,9,81,1.717647059,Moxie Bald,1.71504,-42,4.2,30600
10,6/12/96,9.7,13.1,1250,2000,10,100,1.350515464,New LT,1.894,-41,4.1,34920
11,6/13/96,7.58,7,2470,2200,11,121,0.92348285,Caratunk ME,2.07064,-40,4,27288
12,6/14/96,5.5,14,1730,1100,12,144,2.545454545,West Carry Pond,2.24496,-39,3.9,19800
13,6/15/96,10.66,17.5,5970,2400,13,169,1.641651032,Horns Pond,2.41696,-38,3.8,38376
14,6/16/96,1.71,5.1,210,1100,14,196,2.98245614,Stratton,2.58664,-37,3.7,6156
15,6/17/96,8.2,13.5,5380,2400,15,225,1.646341463,Spaulding Mtn.,2.754,-36,3.6,29520
16,6/18/96,11,16.9,4320,2100,16,256,1.536363636,Piazza Rock,2.91904,-35,3.5,39600
17,6/19/96,5.2,11.2,2050,1700,17,289,2.153846154,Sabbath,3.08176,-34,3.4,18720
18,6/20/96,12.45,21.1,6790,2300,18,324,1.694779116,Hall,3.24216,-33,3.3,44820
19,6/21/96,2,6,400,2200,19,361,3,Andover,3.40024,-32,3.2,7200
20,6/22/96,5.11,9.9,3880,2400,20,400,1.937377691,Grafton,3.556,-31,3.1,18396
21,6/23/96,5.13,10.1,4650,3100,21,441,1.968810916,Full Goose,3.70944,-30,3,18468
22,6/24/96,8,14.7,4420,2200,22,484,1.8375,Trident,3.86056,-29,2.9,28800
23,6/25/96,7,9.8,1510,2400,23,529,4.9,Gorham,4.00936,-28,2.8,25200
24,6/26/96,5.1,7.6,3760,3000,24,576,1.490196078,Imp,4.15584,-27,2.7,18360
25,6/27/96,4,7.3,2580,2900,25,625,1.825,Carter,4.3,-26,2.6,14400
26,6/28/96,4,5.5,1500,3000,26,676,1.375,Pinkham Notch,4.44184,-25,2.5,14400
27,6/30/96,2.2,4.3,1220,2700,27,729,1.954545455,Osgood,4.58136,-24,2.4,7920
28,7/1/96,8.51,14.7,5810,2700,28,784,1.727379553,Mizpah,4.71856,-23,2.3,30636
29,7/2/96,10.53,21,5390,2400,29,841,1.994301994,Trail,4.85344,-22,2.2,37908
30,7/3/96,8.46,15.6,5030,4800,30,900,1.843971631,Lonesome Lake,4.986,-21,2.1,30456
31,7/4/96,3,5.8,1960,2600,31,961,1.933333333,Eliza Brook,5.11624,-20,2,10800
32,7/5/96,9,18.1,5310,2700,32,1024,2.011111111,Webster Mtn.,5.24416,-19,1.9,32400
33,7/6/96,11.93,25,6110,2500,33,1089,2.095557418,Trapper John,5.36976,-18,1.8,42948
34,7/7/96,7.75,17,3500,2700,34,1156,2.193548387,Hanover NH,5.49304,-17,1.7,27900
35,7/9/96,7,14.7,3630,2800,35,1225,2.1,Thistle Hill,5.614,-16,1.6,25200
36,7/10/96,9.61,21.3,5800,2100,36,1296,2.216441207,Stony Brook,5.73264,-15,1.5,34596
37,7/11/96,12.18,24.7,5820,2600,37,1369,2.027914614,Clarendon,5.84896,-14,1.4,43848
38,7/12/96,9,18.6,4050,2500,38,1444,2.066666667,Lost Pond,5.96296,-13,1.3,32400
39,7/13/96,5,15,2740,2600,39,1521,3,Manchester VT,6.07464,-12,1.2,18000
40,7/15/96,1,2.2,650,9100,40,1600,2.2,Spruce Peak,6.184,-11,1.1,3600
41,7/16/96,7.53,17.2,3370,2400,41,1681,2.284196547,Story Spring,6.29104,-10,1,27108
42,7/17/96,9.38,22.9,4500,2600,42,1764,2.441364606,Cogdon Shelter,6.39576,-9,0.9,33768
43,7/18/96,10.36,20.5,5140,2700,43,1849,1.978764479,Mt. Greylock,6.49816,-8,0.8,37296
44,7/19/96,9.28,16.9,2220,2100,44,1936,1.82112069,Dalton,6.59824,-7,0.7,33408
45,7/20/96,8,20,3470,2100,45,2025,2.5,Upper Goose Pond,6.696,-6,0.6,28800
46,7/21/96,7.75,21,3990,2700,46,2116,2.709677419,Tom Leonard,6.79144,-5,0.5,27900
47,7/22/96,9.8,22.3,4770,2500,47,2209,2.275510204,Bond,6.88456,-4,0.4,35280
48,7/23/96,7,20.7,2900,2400,48,2304,2.957142857,Pine Swamp,6.97536,-3,0.3,25200
49,7/24/96,7.33,17.9,3610,2500,49,2401,2.4420191,Lang's,7.06384,-2,0.2,26388
50,7/25/96,8.76,21.7,4540,4400,50,2500,2.47716895,Telephone,7.15,-1,0.1,31536
51,7/26/96,6.81,16.1,2410,2300,0,2601,2.364170338,RPH Cabin,7.23384,0,0,24516
52,7/27/96,7,19.4,3860,2000,0,2704,2.771428571,Graymoor,7.31536,0,0,25200
53,7/28/96,9,20.1,4920,2200,0,2809,2.233333333,Fingerboard,7.39456,0,0,32400
54,7/29/96,7.19,15.5,3310,2500,0,2916,2.155771905,Wildcat,7.47144,0,0,25884
55,7/30/96,6.63,17.4,2240,1500,0,3025,2.624434389,Vernon,7.546,0,0,23868
56,7/31/96,9.45,24,3300,1800,0,3136,2.53968254,Rutherford,7.61824,0,0,34020
57,8/1/96,7.81,15.5,1980,1500,0,3249,1.984635083,Brink,7.68816,0,0,28116
58,8/2/96,9,24.7,3000,1500,0,3364,2.744444444,DWG,7.75576,0,0,32400
59,8/3/96,8.2,19.7,2570,2300,0,3481,2.402439024,Smith shelter,7.82104,0,0,29520
60,8/4/96,6.1,16,900,800,0,3600,2.62295082,Palmerton PA,7.884,0,0,21960
61,8/5/96,7.36,18.6,2670,2500,0,3721,2.527173913,Allentown Shelter,7.94464,0,0,26496
62,8/6/96,9.83,24.2,2556,2000,0,3844,2.461851475,Port Clinton,8.00296,0,0,35388
63,8/7/96,8.75,23,2600,3100,0,3969,2.628571429,501 Shelter,8.05896,0,0,31500
64,8/8/96,8,17.9,1890,2000,0,4096,2.2375,Rausch Gap,8.11264,0,0,28800
65,8/9/96,9.71,24.7,2520,3000,0,4225,2.54376931,Clarks Ferry,8.164,0,0,34956
66,8/10/96,7.85,16.2,2330,2200,0,4356,2.063694268,Darlington,8.21304,0,0,28260
67,8/11/96,12.28,19,1870,1900,0,4489,1.54723127,Alec Kennedy,8.25976,0,0,44208
68,8/12/96,6,15.7,2450,1900,0,4624,2.616666667,Pine Furnace,8.30416,0,0,21600
69,8/13/96,12.73,30.2,4250,1800,0,4761,2.372348782,Antetiem,8.34624,0,0,45828
70,8/14/96,10.75,23.3,4220,2300,0,4900,2.16744186,Pine Knob,8.386,0,0,38700
71,8/15/96,9.56,23.3,3030,2000,0,5041,2.437238494,Harpers Ferry,8.42344,0,0,34416
72,8/17/96,5,12.1,2220,2600,0,5184,2.42,Blackburn,8.45856,0,0,18000
73,8/18/96,7.5,17,4470,2400,0,5329,2.266666667,Rod Hollow,8.49136,0,0,27000
74,8/19/96,8.18,19,3840,2000,0,5476,2.322738386,Denton,8.52184,0,0,29448
75,8/20/96,7.4,18,4300,2000,0,5625,2.432432432,Gravel Spring,8.55,0,0,26640
76,8/21/96,7.28,13,2850,2100,0,5776,1.785714286,Pass Mountain,8.57584,0,0,26208
77,8/22/96,11,20.8,5360,2300,0,5929,1.890909091,Bear Fence,8.59936,0,0,39600
78,8/23/96,8.5,21,4070,2400,0,6084,2.470588235,Pinefield,8.62056,0,0,30600
79,8/24/96,11.18,26.2,6310,2200,0,6241,2.343470483,Calf Mountain,8.63944,0,0,40248
80,8/25/96,2.4,7,950,1200,0,6400,2.916666667,Waynesboro,8.656,0,0,8640
81,8/26/96,7.9,24,3620,5600,0,6561,3.037974684,Rusty's,8.67024,0,0,28440
82,8/29/96,10.5,20.8,7220,2700,0,6724,1.980952381,Seely Woodward,8.68216,0,0,37800
83,8/30/96,9.36,24,4540,2600,0,6889,2.564102564,Punch Bowl,8.69176,0,0,33696
84,8/31/96,5,14,2400,2200,0,7056,2.8,Matt's Creek,8.69904,0,0,18000
85,9/1/96,9.33,23,6090,2500,0,7225,2.465166131,Bryant Ridge,8.704,0,0,33588
86,9/2/96,10.2,26,6170,2500,0,7396,2.549019608,Full Hardt Knob,8.70664,0,0,36720
87,9/3/96,10.6,20,3930,3000,0,7569,1.886792453,Campbell,8.70696,0,0,38160
88,9/4/96,6.52,16,3330,2600,0,7744,2.45398773,Pickle Branch,8.70496,0,0,23472
89,9/5/96,9.18,23,4860,2300,0,7921,2.505446623,Laurel Creek,8.70064,0,0,33048
90,9/6/96,5.61,14,3410,3300,0,8100,2.495543672,Bailey Gap,8.694,0,0,20196
91,9/7/96,9.4,23.5,3690,2500,0,8281,2.5,Pearisburg,8.68504,0,0,33840
92,9/8/96,7.71,16,3560,2500,0,8464,2.075226978,Wapiti,8.67376,0,0,27756
93,9/9/96,9.21,23,3710,1800,0,8649,2.497285559,Harver's Mill,8.66016,0,0,33156
94,9/10/96,10.6,25,5440,2500,0,8836,2.358490566,Chesnut Knob,8.64424,0,0,38160
95,9/11/96,9,23,4410,2400,0,9025,2.555555556,I-81 Motel,8.626,0,0,32400
96,9/12/96,9.7,24.5,5410,2200,0,9216,2.525773196,Racoon Branch,8.60544,0,0,34920
97,9/13/96,8.8,23.5,5070,2600,0,9409,2.670454545,Thomas Knob,8.58256,0,0,31680
98,9/14/96,10,28,3490,1900,0,9604,2.8,Damascus,8.55736,0,0,36000
99,9/18/96,3.33,10,2620,2500,0,9801,3.003003003,Abbington,8.52984,0,0,11988
100,9/19/96,11,29.2,4120,1800,0,10000,2.654545455,Watagua Lake,8.5,0,0,39600
101,9/20/96,7.25,18,4960,2500,0,10201,2.482758621,Moreland Gap,8.46784,0,0,26100
102,9/21/96,9.18,22,6380,2500,0,10404,2.396514161,Over Mountain,8.43336,0,0,33048
103,9/22/96,9,20.1,5790,2700,0,10609,2.233333333,Cherry Gap,8.39656,0,0,32400
104,9/23/96,5.38,16.4,2460,2600,0,10816,3.048327138,NCG Hostel,8.35744,0,0,19368
105,9/24/96,7.15,15.8,5850,2500,0,11025,2.20979021,Bald Mountain,8.316,0,0,25740
106,9/25/96,8.83,19,5200,2000,0,11236,2.151755379,Flynt Mountain,8.27224,0,0,31788
107,9/26/96,7.82,21,4660,2700,0,11449,2.685421995,Spring Mountain,8.22616,0,0,28152
108,9/27/96,3.16,11,1530,9300,0,11664,3.481012658,Hot Springs,8.17776,0,0,11376
109,9/30/96,6,15,4820,3900,0,11881,2.5,Roaring Fork,8.12704,0,0,21600
110,10/1/96,8.9,22,4520,2300,0,12100,2.471910112,Davenport Gap,8.074,0,0,32040
111,10/2/96,8.68,20,6000,2500,0,12321,2.304147465,Peck's Corner,8.01864,0,0,31248
112,10/3/96,9.8,23,5010,2300,0,12544,2.346938776,Siler's Bald,7.96096,0,0,35280
113,10/4/96,11,27.1,5250,2900,0,12769,2.463636364,Fontana Hilton,7.90096,0,0,39600
114,10/5/96,1,1.4,640,2100,0,12996,1.4,Fontana Hostel,7.83864,0,0,3600
115,10/6/96,9.33,21.6,7330,2700,0,13225,2.31511254,Sasafaras Gap,7.774,0,0,33588
116,10/7/96,9,18,5530,2800,0,13456,2,Cold Spring,7.70704,0,0,32400
117,10/8/96,7.66,19.5,3630,1330,0,13689,2.545691906,Rock Gap,7.63776,0,0,27576
118,10/9/96,8.33,19.8,4000,2100,0,13924,2.37695078,Standing Indian,7.56616,0,0,29988
119,10/10/96,7.63,19.9,4550,2600,0,14161,2.608125819,Deep Gap,7.49224,0,0,27468
120,10/11/96,6.5,14.8,4930,2900,0,14400,2.276923077,Blue Mountain,7.416,0,0,23400
121,10/12/96,8.33,20.2,5260,2600,0,14641,2.424969988,Blood Mountain,7.33744,0,0,29988
122,10/13/96,8.6,20.7,4650,2400,0,14884,2.406976744,Hawk Mountain,7.25656,0,0,30960
123,10/14/96,2.33,7.7,1610,2200,0,15129,3.30472103,FINISH!,7.17336,0,0,8388
